0.013802 0.035677 0.054427 0.070051 0.082551 0.091926 0.098176 0.101301 0.101301 0.098176 0.091926 0.082551 0.070051 0.054427 0.035677 0.013802 
0.013802 0.035677 0.054427 0.070051 0.082551 0.091926 0.098176 0.101301 0.101301 0.098176 0.091926 0.082551 0.070051 0.054427 0.035677 0.013802 
0.013802 0.035677 0.054427 0.070051 0.082551 0.091926 0.098176 0.101301 0.101301 0.098176 0.091926 0.082551 0.070051 0.054427 0.035677 0.013802 
0.013802 0.035677 0.054427 0.070051 0.082551 0.091926 0.098176 0.101301 0.101301 0.098176 0.091926 0.082551 0.070051 0.054427 0.035677 0.013802 
0.013802 0.035677 0.054427 0.070051 0.082551 0.091926 0.098176 0.101301 0.101301 0.098176 0.091926 0.082551 0.070051 0.054427 0.035677 0.013802 
